{
	"info": {
		"_postman_id": "63fb60f8-de83-42ec-aae9-19d52c792d24",
		"name": "Assignment - Secure your website",
		"schema": "https://schema.getpostman.com/json/collection/v2.1.0/collection.json"
	},
	"item": [
		{
			"name": "Get /user without authorization",
			"event": [
				{
					"listen": "test",
					"script": {
						"exec": [
							"pm.test(\"Not redirected to user page\", function () {\r",
							"    pm.response.to.not.have.body(\"This is accessible to all authorized users\");\r",
							"});"
						],
						"type": "text/javascript"
					}
				}
			],
			"protocolProfileBehavior": {
				"disableBodyPruning": true,
				"followRedirects": true
			},
			"request": {
				"method": "GET",
				"header": [],
				"body": {
					"mode": "urlencoded",
					"urlencoded": []
				},
				"url": {
					"raw": "https://10.212.27.247:8443/user",
					"protocol": "https",
					"host": [
						"10",
						"212",
						"27",
						"247"
					],
					"port": "8443",
					"path": [
						"user"
					]
				}
			},
			"response": []
		},
		{
			"name": "Test login with wrong credentials",
			"event": [
				{
					"listen": "test",
					"script": {
						"exec": [
							"pm.test(\"Not redirected to public home page\", function () {\r",
							"    pm.response.to.not.have.body(\"This is a public home page\");\r",
							"});\r",
							"pm.test(\"Not redirected to user page\", function () {\r",
							"    pm.response.to.not.have.body(\"This is accessible to all authorized users\");\r",
							"});\r",
							"pm.test(\"Not redirected to admin page\", function () {\r",
							"    pm.response.to.not.have.body(\"This is accessible only for ADMIN users\");\r",
							"});"
						],
						"type": "text/javascript"
					}
				}
			],
			"protocolProfileBehavior": {
				"followRedirects": true
			},
			"request": {
				"method": "POST",
				"header": [],
				"body": {
					"mode": "urlencoded",
					"urlencoded": [
						{
							"key": "username",
							"value": "wrong",
							"type": "text"
						},
						{
							"key": "password",
							"value": "credentials",
							"type": "text"
						}
					]
				},
				"url": {
					"raw": "https://10.212.27.247:8443/login",
					"protocol": "https",
					"host": [
						"10",
						"212",
						"27",
						"247"
					],
					"port": "8443",
					"path": [
						"login"
					]
				}
			},
			"response": []
		},
		{
			"name": "Get /user with wrong credentials",
			"event": [
				{
					"listen": "test",
					"script": {
						"exec": [
							"pm.test(\"Not redirected to user page\", function () {\r",
							"    pm.response.to.not.have.body(\"This is accessible to all authorized users\");\r",
							"});"
						],
						"type": "text/javascript"
					}
				}
			],
			"request": {
				"method": "GET",
				"header": [],
				"url": {
					"raw": "https://10.212.27.247:8443/user",
					"protocol": "https",
					"host": [
						"10",
						"212",
						"27",
						"247"
					],
					"port": "8443",
					"path": [
						"user"
					]
				}
			},
			"response": []
		},
		{
			"name": "Login with user credentials",
			"event": [
				{
					"listen": "test",
					"script": {
						"exec": [
							"pm.test(\"Status code is 200\", function () {\r",
							"    pm.response.to.have.status(200);\r",
							"});\r",
							"pm.test(\"Body matches string\", function () {\r",
							"    pm.expect(pm.response.text()).to.include(\"This is accessible to all authorized users\");\r",
							"});"
						],
						"type": "text/javascript"
					}
				}
			],
			"protocolProfileBehavior": {
				"followRedirects": true
			},
			"request": {
				"method": "POST",
				"header": [],
				"body": {
					"mode": "urlencoded",
					"urlencoded": [
						{
							"key": "username",
							"value": "user",
							"type": "text"
						},
						{
							"key": "password",
							"value": "user",
							"type": "text"
						}
					]
				},
				"url": {
					"raw": "https://10.212.27.247:8443/login",
					"protocol": "https",
					"host": [
						"10",
						"212",
						"27",
						"247"
					],
					"port": "8443",
					"path": [
						"login"
					]
				}
			},
			"response": []
		},
		{
			"name": "Try get/admin with user account",
			"event": [
				{
					"listen": "test",
					"script": {
						"exec": [
							"pm.test(\"Status code is 403\", function () {\r",
							"    pm.response.to.have.status(403);\r",
							"});"
						],
						"type": "text/javascript"
					}
				}
			],
			"request": {
				"method": "GET",
				"header": [],
				"url": {
					"raw": "https://10.212.27.247:8443/admin",
					"protocol": "https",
					"host": [
						"10",
						"212",
						"27",
						"247"
					],
					"port": "8443",
					"path": [
						"admin"
					]
				}
			},
			"response": []
		},
		{
			"name": "Login with admin credentials",
			"event": [
				{
					"listen": "test",
					"script": {
						"exec": [
							"pm.test(\"Status code is 200\", function () {\r",
							"    pm.response.to.have.status(200);\r",
							"});\r",
							"pm.test(\"Body matches string\", function () {\r",
							"    pm.expect(pm.response.text()).to.include(\"This is a public home page\");\r",
							"});"
						],
						"type": "text/javascript"
					}
				}
			],
			"request": {
				"method": "POST",
				"header": [],
				"body": {
					"mode": "urlencoded",
					"urlencoded": [
						{
							"key": "username",
							"value": "admin",
							"type": "text"
						},
						{
							"key": "password",
							"value": "admin",
							"type": "text"
						}
					]
				},
				"url": {
					"raw": "https://10.212.27.247:8443/login",
					"protocol": "https",
					"host": [
						"10",
						"212",
						"27",
						"247"
					],
					"port": "8443",
					"path": [
						"login"
					]
				}
			},
			"response": []
		},
		{
			"name": "Try get/admin with admin account",
			"event": [
				{
					"listen": "test",
					"script": {
						"exec": [
							"pm.test(\"Status code is 200\", function () {\r",
							"    pm.response.to.have.status(200);\r",
							"});\r",
							"pm.test(\"Body matches string\", function () {\r",
							"    pm.expect(pm.response.text()).to.include(\"This is accessible only for ADMIN users\");\r",
							"});"
						],
						"type": "text/javascript"
					}
				}
			],
			"request": {
				"method": "GET",
				"header": [],
				"url": {
					"raw": "https://10.212.27.247:8443/admin",
					"protocol": "https",
					"host": [
						"10",
						"212",
						"27",
						"247"
					],
					"port": "8443",
					"path": [
						"admin"
					]
				}
			},
			"response": []
		},
		{
			"name": "Log out",
			"event": [
				{
					"listen": "test",
					"script": {
						"exec": [
							"pm.test(\"Status code is 200\", function () {\r",
							"    pm.response.to.have.status(200);\r",
							"});"
						],
						"type": "text/javascript"
					}
				}
			],
			"request": {
				"method": "POST",
				"header": [],
				"url": {
					"raw": "https://10.212.27.247:8443/logout",
					"protocol": "https",
					"host": [
						"10",
						"212",
						"27",
						"247"
					],
					"port": "8443",
					"path": [
						"logout"
					]
				}
			},
			"response": []
		}
	]
}